{
  "version": 1,
  "title": "Page views over time",
  "type": "LineChart",
  "data": {
    "type": "cube_analytics",
    "query": {
      "measures": ["TrackedEvents.pageViewsCount"],
      "timeDimensions": [{ "dimension": "TrackedEvents.utcTime", "granularity": "day" }],
      "filters": [{ "operator": "equals", "values": ["pageview"], "member": "TrackedEvents.eventType" }],
      "limit": 100,
      "timezone": "UTC",
      "dimensions": []
    }
  },
  "options": {
    "xAxis": { "name": "Time", "type": "time" },
    "yAxis": { "name": "Counts", "type": "time" }
  }
}
