{
  "version": 1,
  "title": "Sessions per Browser",
  "type": "DataTable",
  "data": {
    "type": "cube_analytics",
    "query": {
      "measures": ["Sessions.count"],
      "dimensions": ["TrackedEvents.parsedUaUaFamily", "TrackedEvents.parsedUaUaVersion"],
      "limit": 100,
      "timezone": "UTC",
      "filters": [],
      "timeDimensions": []
    }
  },
  "options": {}
}
